{
  "development": {
      "username": "root",
      "password": "lamisma14",
      "database": "SorteosDelNorte-Dev",
      "host": "localhost",
      "dialect": "mysql",
      "dialectOption":{
        "useUTC":true
      }
  },
  "test": {
    "username": "root",
    "password": "lamisma14",
    "database": "SorteosDelNorte-Dev",
    "host": "localhost",
    "dialect": "mysql",
    "dialectOption":{
      "useUTC":true
    }
  },
  "production": {
    "username": "root",
    "password": "lamisma14",
    "database": "SorteosDelNorte-Dev",
    "host": "localhost",
    "dialect": "mysql",
    "dialectOption":{
      "useUTC":true
    }
  },
  "initialconfig":{
    "user": "root",
    "password": "lamisma14",
    "database": "SorteosDelNorte-Dev",
    "host": "localhost",
    "dialect": "mysql",
    "timezone": "-06:00"
  }
}
